<?xml version="1.0" encoding="UTF-8"?>
<svg width="199px" height="36px" viewBox="0 0 199 36" version="1.1" xmlns="http://www.w3.org/2000/svg" xmlns:xlink="http://www.w3.org/1999/xlink">
    <g id="Components" stroke="none" stroke-width="1" fill="none" fill-rule="evenodd">
        <g id="navbar-stack" transform="translate(-56.000000, -42.000000)">
            <g id="main" transform="translate(0.000000, 32.000000)">
                <g id="logotype" transform="translate(56.000000, 10.000000)">
                    <path d="M0,36 L4.65093586,11 L13.3359815,11 C16.8265797,11 19.4775588,11.5785956 21.286328,12.7350166 C23.0956154,13.8924644 24,15.5864094 24,17.8196753 C24,19.3683297 23.5373157,20.6022733 22.6140196,21.5189391 C21.6902053,22.4361183 20.3503379,22.9864772 18.5938991,23.1684755 C20.1104467,23.3966794 21.3023898,23.9652637 22.1697286,24.874742 C23.0370674,25.7849904 23.4707368,26.9162551 23.4707368,28.2700763 C23.4707368,30.6591574 22.4961465,32.5443419 20.5490382,33.9261431 C18.6011528,35.3084577 15.9268582,36 12.5248591,36 L0,36 Z M10,30 L10.672262,30 C12.2841599,30 13.4088797,29.8332211 14.044781,29.5004715 C14.6812292,29.1671831 15,28.6008352 15,27.8035835 C15,27.1849656 14.7777353,26.7293547 14.3356662,26.4378284 C13.8930505,26.1460326 13.1939964,26 12.2363169,26 L10.7441632,26 L10,30 Z M172.944314,34.2449226 L185.451179,11 L195.640248,11 L199,36 L189.832855,36 L189.657154,32.6778244 L183.462371,32.6778244 L182.055176,36 L172.833605,36 L163.87624,36 L160.071263,25.05366 L158.04054,36 L149,36 L153.606444,11 L162.66391,11 L160.771424,21.1441612 L167.440137,11 L178,11 L168.567832,23.6194926 L172.944314,34.2449226 Z M12,20 L12.6269863,17 L13.8637221,17 C14.5335308,17 15.057366,17.124153 15.4333423,17.3717328 C15.8112039,17.6185866 16,17.9566796 16,18.3867377 C16,18.946515 15.7158632,19.3552759 15.1473202,19.6125363 C14.5801239,19.8712488 13.6859682,20 12.4661998,20 L12,20 Z M25,36 L29.6618228,11 L38.8276955,11 L37.2398473,19.6365783 L42.2112472,19.6365783 L43.8164816,11 L53,11 L48.3044429,36 L39.1377917,36 L40.846824,27.0143134 L35.8582973,27.0143134 L34.1497841,36 L25,36 Z M53,36 L57.6890413,11 L67,11 L62.3270893,36 L53,36 Z M67,36 L71.663943,11 L80.9375579,11 L83.8401555,18.9404154 C83.8866365,19.0659404 83.9551895,19.2594901 84.0473726,19.5218347 C84.6931733,21.2514606 85.1408453,22.7492889 85.3945435,24.0127527 L87.8294743,11 L97,11 L92.3194381,36 L83.0624421,36 L78.3813608,23.0906963 C78.3351395,24.2627758 78.0765076,26.1643889 77.6039072,28.7945087 L77.5704097,28.9990964 L76.2746536,36 L67,36 Z M97,36 L101.663862,11 L110.938355,11 L113.840383,18.9404154 C113.886344,19.0659404 113.955935,19.2594901 114.048635,19.5218347 C114.691828,21.2514606 115.141051,22.7492889 115.394225,24.0127527 L117.829114,11 L127,11 L122.320038,36 L113.063203,36 L108.381683,23.0906963 C108.335463,24.2627758 108.077355,26.1643889 107.604762,28.7945087 L107.570227,28.9990964 L106.275532,36 L97,36 Z M127,36 L131.662363,11 L149,11 L147.755682,17.7829676 L139.518727,17.7829676 L139.052206,20.1959216 L146.807581,20.1959216 L145.632579,26.5242784 L137.895636,26.5242784 L137.395624,29.2167757 L146.375068,29.2167757 L145.113875,36 L127,36 Z M186,27 L189,27 L188.905164,24.2329792 C188.894305,24.0804621 188.883446,23.8630722 188.872587,23.5818687 C188.819981,22.4303115 188.792954,21.5014398 188.792954,20.7971072 C188.792954,20.3268461 188.795367,19.9659418 188.800917,19.7136001 C188.805743,19.460464 188.814189,19.2224208 188.824566,19 C188.631757,19.6934763 188.43388,20.35915 188.23166,20.9991394 C188.02751,21.6393936 187.834942,22.2134512 187.65251,22.7173402 L186,27 Z" id="Combined-Shape" fill="#ED1C24"></path>
                    <polygon id="Fill-66" fill="#FFCA04" points="59.0085183 2.67078047 81 0 58 8"></polygon>
                </g>
            </g>
        </g>
    </g>
</svg>
