<?xml version="1.0" encoding="UTF-8"?>
<svg width="100px" height="20px" viewBox="0 0 100 20" version="1.1" xmlns="http://www.w3.org/2000/svg" xmlns:xlink="http://www.w3.org/1999/xlink">
    <!-- Generator: Sketch 46 (44423) - http://www.bohemiancoding.com/sketch -->
    <title>star-rating-base</title>
    <desc>Created with Sketch.</desc>
    <defs></defs>
    <g id="Page-1" stroke="none" stroke-width="1" fill="none" fill-rule="evenodd">
        <g id="star-rating-base">
            <rect id="Bounds" x="0" y="0" width="100" height="20"></rect>
            <g id="pt-icon-star" transform="translate(2.000000, 2.000000)" fill-rule="nonzero" fill="#FFAB01">
                <polygon id="star_filled_2_" points="8 0 10.5 5.3 16 6.1 12 10.2 12.9 16 8 13.3 3.1 16 4 10.2 0 6.1 5.5 5.3"></polygon>
            </g>
            <g id="pt-icon-star" transform="translate(22.000000, 2.000000)" fill-rule="nonzero" fill="#FFAB01">
                <polygon id="star_filled_2_" points="8 0 10.5 5.3 16 6.1 12 10.2 12.9 16 8 13.3 3.1 16 4 10.2 0 6.1 5.5 5.3"></polygon>
            </g>
            <g id="pt-icon-star" transform="translate(42.000000, 2.000000)" fill-rule="nonzero" fill="#FFAB01">
                <polygon id="star_filled_2_" points="8 0 10.5 5.3 16 6.1 12 10.2 12.9 16 8 13.3 3.1 16 4 10.2 0 6.1 5.5 5.3"></polygon>
            </g>
            <g id="pt-icon-star" transform="translate(62.000000, 2.000000)" fill-rule="nonzero" fill="#FFAB01">
                <polygon id="star_filled_2_" points="8 0 10.5 5.3 16 6.1 12 10.2 12.9 16 8 13.3 3.1 16 4 10.2 0 6.1 5.5 5.3"></polygon>
            </g>
            <g id="pt-icon-star" transform="translate(82.000000, 2.000000)" fill-rule="nonzero" fill="#FFAB01">
                <polygon id="star_filled_2_" points="8 0 10.5 5.3 16 6.1 12 10.2 12.9 16 8 13.3 3.1 16 4 10.2 0 6.1 5.5 5.3"></polygon>
            </g>
        </g>
    </g>
</svg>